Project 1
…
##  7 " MS"     2
##  8 " NV"     2
##  9 " AL"     3
## 10 " KS"     3
## 11 " NH"     3
## 12 " NJ"     3
## 13 " TN"     3
## 14 " HI"     4
## 15 " KY"     4
## 16 " NM"     4
## 17 " SC"     4
## 18 " UT"     4
## 19 " WY"     4

## # A tibble: 551 x 2
##    Name                      count
##    <chr>                     <int>
##  1 Blackrocks Brewery            2
##  2 Blue Mountain Brewery         2
##  3 Lucette Brewing Company       2
##  4 Oskar Blues Brewery           2
##  5 Otter Creek Brewing           2
##  6 Sly Fox Brewing Company       2
##  7 Summit Brewing Company        2
##  8 10 Barrel Brewing Company     1
##  9 18th Street Brewery           1
## 10 2 Towns Ciderhouse            1
## # ... with 541 more rows
…
